%YAML 1.1
%TAG !u! tag:unity3d.com,2011:
--- !u!114 &11400000
MonoBehaviour:
  m_ObjectHideFlags: 0
  m_PrefabParentObject: {fileID: 0}
  m_PrefabInternal: {fileID: 0}
  m_GameObject: {fileID: 0}
  m_Enabled: 1
  m_EditorHideFlags: 0
  m_Script: {fileID: 11500000, guid: 53ef02ca0aca9ba44919d9f406db2068, type: 3}
  m_Name: ScubaStats
  m_EditorClassIdentifier: 
  swimSpeed: 10
  groundSpeed: 10
  acceleration: 5.5
  jumpForce: 7
  fallSpeed: 30
